_main.cpp:56:16:int _write(int32_t, uint8_t*, int32_t)	24	static
_main.cpp:76:5:int main()	8	static
_main.cpp:126:6:void SystemClock_Config()	88	static
_main.cpp:176:6:void Error_Handler()	4	static,ignoring_inline_asm
