ILI9488IO8.cpp:82:1:ILI9488_IO8::~ILI9488_IO8()	0	static
ILI9488IO8.cpp:82:1:virtual ILI9488_IO8::~ILI9488_IO8()	8	static
ILI9488IO8.cpp:71:6:void commandList(const uint8_t*)	0	static
ILI9488IO8.cpp:76:1:ILI9488_IO8::ILI9488_IO8()	0	static
ILI9488IO8.cpp:87:6:void ILI9488_IO8::ili9488_init()	0	static
ILI9488IO8.cpp:92:6:void ILI9488_IO8::LCD_Bl_OnOff(uint8_t)	0	static
ILI9488IO8.cpp:98:6:void ILI9488_IO8::Set_Rotation(uint8_t)	0	static
ILI9488IO8.cpp:102:6:void ILI9488_IO8::Fill_Screen(color_t)	8	static
ILI9488IO8.cpp:111:6:void ILI9488_IO8::Draw_Colour_Burst(color_t, uint32_t)	8	static
